<svg width="40" height="40" viewBox="0 0 40 40" fill="none" xmlns="http://www.w3.org/2000/svg">
<path fill-rule="evenodd" clip-rule="evenodd" d="M40 19.4849C40 30.2462 31.2093 38.9698 20.3636 38.9698C16.9204 38.9698 13.6858 38.0898 10.8716 36.5453L0 40L3.54444 29.5458C1.75644 26.6098 0.726667 23.1662 0.726667 19.4849C0.726667 8.72355 9.51822 0 20.3636 0C31.2102 0 40 8.72355 40 19.4849ZM20.3636 3.10311C11.2596 3.10311 3.85422 10.452 3.85422 19.4849C3.85422 23.0693 5.02267 26.3889 6.99911 29.0893L4.93644 35.1733L11.2809 33.1569C13.8876 34.8684 17.0102 35.8667 20.364 35.8667C29.4667 35.8667 36.8733 28.5187 36.8733 19.4858C36.8733 10.4529 29.4671 3.10311 20.3636 3.10311ZM29.6175 23.5416C29.9542 23.7031 30.1817 23.8122 30.2796 23.9724C30.3991 24.1716 30.3991 25.1276 29.9991 26.244C29.5964 27.3587 27.6311 28.4342 26.7493 28.5138C26.5982 28.5275 26.4729 28.5575 26.3445 28.5884C25.7231 28.7375 25.0285 28.9042 20.9729 27.32C16.4508 25.5526 13.4701 21.1659 12.8541 20.2593C12.8035 20.1849 12.7689 20.1339 12.7507 20.1098L12.7499 20.1087C12.5055 19.7865 10.7853 17.5183 10.7853 15.1707C10.7853 12.972 11.8737 11.8189 12.3749 11.2879C12.4093 11.2514 12.441 11.2179 12.4693 11.1871C12.9107 10.7093 13.4324 10.5898 13.7533 10.5898C13.9192 10.5898 14.0851 10.6005 14.2455 10.6108C14.3955 10.6204 14.5405 10.6298 14.676 10.6298C14.7097 10.6298 14.745 10.6275 14.7819 10.6251C15.0531 10.6077 15.4057 10.585 15.7587 11.4262C15.8872 11.7328 16.0735 12.1825 16.2713 12.66C16.6906 13.6723 17.1616 14.8094 17.2431 14.9716C17.364 15.2111 17.4444 15.4898 17.2831 15.8084C17.2602 15.8543 17.2389 15.8976 17.2186 15.9391C17.0972 16.1863 17.0089 16.3663 16.8022 16.6053C16.7226 16.6977 16.6402 16.7971 16.5578 16.8967C16.3915 17.0975 16.225 17.2985 16.08 17.4418C15.8396 17.6796 15.5884 17.9378 15.8689 18.4156C16.1498 18.8942 17.116 20.4569 18.5467 21.7227C20.0857 23.0842 21.4229 23.6599 22.0999 23.9513C22.2317 24.008 22.3385 24.054 22.4169 24.0929C22.8987 24.332 23.1791 24.292 23.46 23.9724C23.7413 23.6538 24.664 22.5787 24.9844 22.1004C25.3049 21.6227 25.6267 21.7027 26.068 21.8618C26.508 22.0204 28.8751 23.1764 29.3569 23.4151C29.4498 23.4612 29.5368 23.5029 29.6175 23.5416Z" fill="white"/>
</svg>
